# BANNER FILE NOT PROVIDED (-b option)
# BULK_EXTRACTOR-Version: 1.6.0-dev ($Rev: 10844 $)
# Feature-Recorder: httplogs
# Filename: /dev/sda2
# Feature-File-Version: 1.1
326658372	007F  ; [.0000.0000.0000.0000] # [007F] DELETE (in 6429)	007F  ; [.0000.0000.0000.0000] # [007F] DELETE (in 6429)
349151035	# iptables -A INPUT -s 127.0.0.1 -p icmp -j DROP	# iptables -A INPUT -s 127.0.0.1 -p icmp -j DROP
349152303	        # iptables -D INPUT -s 127.0.0.1 -p icmp -j DROP	        # iptables -D INPUT -s 127.0.0.1 -p icmp -j DROP
349158551	# iptables -A OUTPUT -f -d 192.168.1.1 -j DROP	# iptables -A OUTPUT -f -d 192.168.1.1 -j DROP
475701248-GZIP-1390	    10.0.1.2 \x5C- \x5C- [01/Dec/2005:21:50:28 +0000] "POST / HTTP/1.1" 200 317	    10.0.1.2 \x5C- \x5C- [01/Dec/2005:21:50:28 +0000] "POST / HTTP/1.1" 200 317
868975959	    10.0.1.2 - - [01/Dec/2005:21:50:28 +0000] "POST / HTTP/1.1" 200 317	    10.0.1.2 - - [01/Dec/2005:21:50:28 +0000] "POST / HTTP/1.1" 200 317
