# BANNER FILE NOT PROVIDED (-b option)
# BULK_EXTRACTOR-Version: 1.6.0-dev ($Rev: 10844 $)
# Feature-Recorder: sqlite_carved
# Filename: /dev/sda2
# Feature-File-Version: 1.1
87646208	sqlite_carved/000/87646208.sqlite3	<fileobject><filename>output/sqlite_carved/000/87646208.sqlite3</filename><filesize>4874240</filesize><hashdigest type='md5'>7afb4755bf2d3922105f48ead9cb2e9e</hashdigest></fileobject>
95956992	sqlite_carved/000/95956992.sqlite3	<fileobject><filename>output/sqlite_carved/000/95956992.sqlite3</filename><filesize>12169216</filesize><hashdigest type='md5'>a36684897bc4651b4cb84b23a9de6183</hashdigest></fileobject>
245481472	sqlite_carved/000/245481472.sqlite3	<fileobject><filename>output/sqlite_carved/000/245481472.sqlite3</filename><filesize>12075008</filesize><hashdigest type='md5'>da8bab760e463e60e00653e1a1f29a89</hashdigest></fileobject>
777699328	sqlite_carved/000/777699328.sqlite3	<fileobject><filename>output/sqlite_carved/000/777699328.sqlite3</filename><filesize>6176768</filesize><hashdigest type='md5'>ea209c09c80d279421354fc5faea8e35</hashdigest></fileobject>
867229696	sqlite_carved/000/867229696.sqlite3	<fileobject><filename>output/sqlite_carved/000/867229696.sqlite3</filename><filesize>11636736</filesize><hashdigest type='md5'>76420c7678ca47ff32f5ad8d1d454fb5</hashdigest></fileobject>
1205514240	sqlite_carved/000/1205514240.sqlite3	<fileobject><filename>output/sqlite_carved/000/1205514240.sqlite3</filename><filesize>14856192</filesize><hashdigest type='md5'>235e6601a8289046e59ddf28c854ad98</hashdigest></fileobject>
1214881792	sqlite_carved/000/1214881792.sqlite3	<fileobject><filename>output/sqlite_carved/000/1214881792.sqlite3</filename><filesize>6967296</filesize><hashdigest type='md5'>409dcd9c887f28e9fd519573833e1a29</hashdigest></fileobject>
1226645504	sqlite_carved/000/1226645504.sqlite3	<fileobject><filename>output/sqlite_carved/000/1226645504.sqlite3</filename><filesize>1953792</filesize><hashdigest type='md5'>e37f8458fded6113ef603078031c972b</hashdigest></fileobject>
1307697152	sqlite_carved/000/1307697152.sqlite3	<fileobject><filename>output/sqlite_carved/000/1307697152.sqlite3</filename><filesize>15925248</filesize><hashdigest type='md5'>e42d73b38c890869a739cc2724681db9</hashdigest></fileobject>
1325400064-MSXML-742294	sqlite_carved/000/1325400064-MSXML-742294.sqlite3	<fileobject><filename>output/sqlite_carved/000/1325400064-MSXML-742294.sqlite3</filename><filesize>921494</filesize><hashdigest type='md5'>fa7f64d6d73c23ac59c5716e4de5f14c</hashdigest></fileobject>
1325400064-MSXML-1313545	sqlite_carved/000/1325400064-MSXML-1313545.sqlite3	<fileobject><filename>output/sqlite_carved/000/1325400064-MSXML-1313545.sqlite3</filename><filesize>1325833</filesize><hashdigest type='md5'>a90b773bb6340134f4643996eb6dd400</hashdigest></fileobject>
1326886912	sqlite_carved/000/1326886912.sqlite3	<fileobject><filename>output/sqlite_carved/000/1326886912.sqlite3</filename><filesize>1666048</filesize><hashdigest type='md5'>1925df5f3c84c6ef2d52c39c342f9cb7</hashdigest></fileobject>
1327964160	sqlite_carved/000/1327964160.sqlite3	<fileobject><filename>output/sqlite_carved/000/1327964160.sqlite3</filename><filesize>2576384</filesize><hashdigest type='md5'>6525e11be7f01ac09259935206cb4b10</hashdigest></fileobject>
1419939840	sqlite_carved/000/1419939840.sqlite3	<fileobject><filename>output/sqlite_carved/000/1419939840.sqlite3</filename><filesize>10686464</filesize><hashdigest type='md5'>544e0dbc06440bcefe462bc51fe599de</hashdigest></fileobject>
1456664576	sqlite_carved/000/1456664576.sqlite3	<fileobject><filename>output/sqlite_carved/000/1456664576.sqlite3</filename><filesize>13848576</filesize><hashdigest type='md5'>c8070ae5d1e807e71e93a46c6bef7269</hashdigest></fileobject>
1460719616	sqlite_carved/000/1460719616.sqlite3	<fileobject><filename>output/sqlite_carved/000/1460719616.sqlite3</filename><filesize>1298432</filesize><hashdigest type='md5'>db319b3734b49162e1401dc1ec80dbed</hashdigest></fileobject>
2119107124	sqlite_carved/000/2119107124.sqlite3	<fileobject><filename>output/sqlite_carved/000/2119107124.sqlite3</filename><filesize>5472820</filesize><hashdigest type='md5'>3abda5c5dcbbab871a66ea0b93ed7847</hashdigest></fileobject>
2423543200	sqlite_carved/000/2423543200.sqlite3	<fileobject><filename>output/sqlite_carved/000/2423543200.sqlite3</filename><filesize>7810464</filesize><hashdigest type='md5'>8cced8990875328848046a5a3a7efe1c</hashdigest></fileobject>
2423744416	sqlite_carved/000/2423744416.sqlite3	<fileobject><filename>output/sqlite_carved/000/2423744416.sqlite3</filename><filesize>8015776</filesize><hashdigest type='md5'>b227a1849858a7556f4c9d9569e9e8d5</hashdigest></fileobject>
3968887176	sqlite_carved/000/3968887176.sqlite3	<fileobject><filename>output/sqlite_carved/000/3968887176.sqlite3</filename><filesize>9655688</filesize><hashdigest type='md5'>757627702fa8220889f7a2f444df2f14</hashdigest></fileobject>
3969212056	sqlite_carved/000/3969212056.sqlite3	<fileobject><filename>output/sqlite_carved/000/3969212056.sqlite3</filename><filesize>9967256</filesize><hashdigest type='md5'>e771121271d02a6b9a1f6952d5383364</hashdigest></fileobject>
4083679232	sqlite_carved/000/4083679232.sqlite3	<fileobject><filename>output/sqlite_carved/000/4083679232.sqlite3</filename><filesize>7110656</filesize><hashdigest type='md5'>591a41f93eda781da435582092805fc8</hashdigest></fileobject>
4126932992	sqlite_carved/000/4126932992.sqlite3	<fileobject><filename>output/sqlite_carved/000/4126932992.sqlite3</filename><filesize>16842752</filesize><hashdigest type='md5'>940352d33c26b2c2583c841e9c3264fe</hashdigest></fileobject>
4171939056	sqlite_carved/000/4171939056.sqlite3	<fileobject><filename>output/sqlite_carved/000/4171939056.sqlite3</filename><filesize>11369712</filesize><hashdigest type='md5'>ec1b5af5de16e6ad30ce9f910f2774fb</hashdigest></fileobject>
4227858432-MSXML-2368469	sqlite_carved/000/4227858432-MSXML-2368469.sqlite3	<fileobject><filename>output/sqlite_carved/000/4227858432-MSXML-2368469.sqlite3</filename><filesize>2552789</filesize><hashdigest type='md5'>e9f0fbfb0b091a696558dc5b24f5b700</hashdigest></fileobject>
4232478424	sqlite_carved/000/4232478424.sqlite3	<fileobject><filename>output/sqlite_carved/000/4232478424.sqlite3</filename><filesize>4801240</filesize><hashdigest type='md5'>29ff048cbc5b1efe4e7ab4573b95d548</hashdigest></fileobject>
4462477312	sqlite_carved/000/4462477312.sqlite3	<fileobject><filename>output/sqlite_carved/000/4462477312.sqlite3</filename><filesize>16777216</filesize><hashdigest type='md5'>d192553dbb529ec0f2a7330e30bc0af4</hashdigest></fileobject>
